StackOverflow 2024 Survey Analysis - 3 Results
…
The following object is masked from 'package:graphics':

    layout

Code

AI_survey <- read.csv('data/parsed_AItools.csv')
AI <- subset(AI_survey, select = -X)

data_long <- AI %>%
  pivot_longer(cols = -index, names_to = "category", values_to = "value")

data_long

# A tibble: 33 × 3
   index                     category                value
   <chr>                     <chr>                   <int>
 1 Learning about a codebase Currently.Using         11105
 2 Learning about a codebase Interested.in.Using     14599
 3 Learning about a codebase Not.interested.in.Using  6742
 4 Project planning          Currently.Using          4381
 5 Project planning          Interested.in.Using     11407
 6 Project planning          Not.interested.in.Using 15225
 7 Writing code              Currently.Using         29486
 8 Writing code              Interested.in.Using      3296
 9 Writing code              Not.interested.in.Using  2106
10 Documenting code          Currently.Using         14439
# ℹ 23 more rows
…
